100/Hs_16_100_75_05_001.has	100.0	256.0	96.0	99.0	254.0	202.55659437179565
100/Hs_16_100_75_05_002.has	100.0	256.0	96.0	100.0	256.0	239.01035141944885
100/Hs_16_100_75_05_003.has	100.0	256.0	100.0	99.0	254.0	208.51716375350952
100/Hs_16_100_75_05_004.has	100.0	256.0	100.0	100.0	256.0	132.30150365829468
100/Hs_16_100_75_05_005.has	100.0	256.0	98.0	100.0	256.0	242.9888834953308
100/Hs_16_100_75_05_006.has	100.0	256.0	98.0	100.0	256.0	224.33859038352966
100/Hs_16_100_75_05_007.has	100.0	256.0	100.0	100.0	256.0	159.3263862133026
100/Hs_16_100_75_05_008.has	100.0	256.0	98.0	100.0	256.0	183.1376395225525
100/Hs_16_100_75_05_009.has	100.0	256.0	100.0	100.0	256.0	74.0244972705841
100/Hs_16_100_75_05_010.has	100.0	256.0	100.0	100.0	256.0	71.97582030296326
100/Hs_16_100_75_05_011.has	100.0	256.0	100.0	100.0	256.0	45.540465116500854
100/Hs_16_100_75_05_012.has	100.0	256.0	100.0	100.0	256.0	57.06441378593445
100/Hs_16_100_75_05_013.has	100.0	256.0	100.0	98.0	254.0	177.4947075843811
100/Hs_16_100_75_05_014.has	100.0	256.0	96.0	100.0	256.0	207.09640264511108
100/Hs_16_100_75_05_015.has	100.0	256.0	100.0	100.0	256.0	76.03383564949036
100/Hs_16_100_75_05_016.has	100.0	256.0	97.0	98.0	252.0	157.77040457725525
100/Hs_16_100_75_05_017.has	100.0	256.0	100.0	100.0	256.0	106.84181261062622
100/Hs_16_100_75_05_018.has	100.0	256.0	100.0	100.0	256.0	119.54638981819153
100/Hs_16_100_75_05_019.has	100.0	256.0	100.0	99.0	254.0	120.97705459594727
100/Hs_16_100_75_05_020.has	100.0	256.0	100.0	100.0	256.0	102.66886687278748
100/Hs_16_100_75_05_021.has	100.0	256.0	98.0	99.0	254.0	106.30488705635071
100/Hs_16_100_75_05_022.has	100.0	256.0	100.0	100.0	256.0	87.08927774429321
100/Hs_16_100_75_05_023.has	100.0	256.0	98.0	99.0	254.0	108.4123682975769
100/Hs_16_100_75_05_024.has	100.0	256.0	99.0	98.0	254.0	108.29531264305115
100/Hs_16_100_75_05_025.has	100.0	256.0	100.0	100.0	256.0	75.64471173286438
100/Hs_16_100_75_05_026.has	100.0	256.0	100.0	100.0	256.0	57.559794664382935
100/Hs_16_100_75_05_027.has	100.0	256.0	100.0	100.0	256.0	28.31521725654602
100/Hs_16_100_75_05_028.has	100.0	256.0	100.0	100.0	256.0	46.78915071487427
100/Hs_16_100_75_05_029.has	100.0	256.0	100.0	100.0	256.0	64.75452947616577
100/Hs_16_100_75_05_030.has	100.0	256.0	98.0	100.0	256.0	120.9908664226532
