100/Hs_16_100_50_10_001.has	100.0	316.0	100.0	100.0	316.0	14.671350479125977
100/Hs_16_100_50_10_002.has	100.0	316.0	100.0	100.0	316.0	10.717825651168823
100/Hs_16_100_50_10_003.has	100.0	316.0	100.0	100.0	316.0	26.374271392822266
100/Hs_16_100_50_10_004.has	100.0	316.0	100.0	99.0	314.0	71.08187079429626
100/Hs_16_100_50_10_005.has	100.0	316.0	100.0	100.0	316.0	12.705355644226074
100/Hs_16_100_50_10_006.has	100.0	316.0	100.0	100.0	316.0	15.432250738143921
100/Hs_16_100_50_10_007.has	100.0	316.0	100.0	100.0	316.0	33.57299518585205
100/Hs_16_100_50_10_008.has	100.0	316.0	100.0	100.0	316.0	42.332480669021606
100/Hs_16_100_50_10_009.has	100.0	316.0	100.0	100.0	316.0	17.859501600265503
100/Hs_16_100_50_10_010.has	100.0	316.0	100.0	99.0	314.0	99.18905735015869
100/Hs_16_100_50_10_011.has	100.0	316.0	100.0	100.0	316.0	15.41350269317627
100/Hs_16_100_50_10_012.has	100.0	316.0	100.0	100.0	316.0	15.5314199924469
100/Hs_16_100_50_10_013.has	100.0	316.0	100.0	100.0	316.0	80.12506532669067
100/Hs_16_100_50_10_014.has	100.0	316.0	100.0	100.0	316.0	6.56782341003418
100/Hs_16_100_50_10_015.has	100.0	316.0	100.0	100.0	316.0	9.29824447631836
100/Hs_16_100_50_10_016.has	100.0	316.0	100.0	100.0	316.0	14.86784315109253
100/Hs_16_100_50_10_017.has	100.0	316.0	100.0	100.0	316.0	16.114043712615967
100/Hs_16_100_50_10_018.has	100.0	316.0	100.0	100.0	316.0	14.747815608978271
100/Hs_16_100_50_10_019.has	100.0	316.0	100.0	100.0	316.0	18.90420365333557
100/Hs_16_100_50_10_020.has	100.0	316.0	100.0	100.0	316.0	43.38302540779114
100/Hs_16_100_50_10_021.has	100.0	316.0	100.0	100.0	316.0	14.872277021408081
100/Hs_16_100_50_10_022.has	100.0	316.0	100.0	99.0	314.0	92.29284739494324
100/Hs_16_100_50_10_023.has	100.0	316.0	100.0	99.0	314.0	74.11810517311096
100/Hs_16_100_50_10_024.has	100.0	316.0	100.0	100.0	316.0	18.888672828674316
100/Hs_16_100_50_10_025.has	100.0	316.0	100.0	100.0	316.0	17.590653896331787
100/Hs_16_100_50_10_026.has	100.0	316.0	100.0	100.0	316.0	72.37087535858154
100/Hs_16_100_50_10_027.has	100.0	316.0	100.0	100.0	316.0	12.940805435180664
100/Hs_16_100_50_10_028.has	100.0	316.0	100.0	100.0	316.0	61.31263542175293
100/Hs_16_100_50_10_029.has	100.0	316.0	100.0	100.0	316.0	15.544057846069336
100/Hs_16_100_50_10_030.has	100.0	316.0	100.0	100.0	316.0	29.841926336288452
